rekao, 3765
osoba, 2793
ljudi, 2317
broj, 2142
mjere, 2035
koronavirus, 2023
mjera, 1600
covid, 1568
osobe, 1332
koronavirusa, 1253
slučajeva, 1233
kazao, 1230
predsjednik, 1192
covida, 1171
tri, 1143
hrvatskoj, 1074
kuna, 1073
vlada, 1052
vlade, 1042
zaraze, 1041
sata, 1005
bolesti, 990
hrvatske, 969
dodao, 945
eu, 932
